{
	"lighting": "none",
	"matrix": {
			"rows": 3,
			"cols": 3
	},
	"layouts": {
			"keymap":[["0,0","0,1","0,2"],
								["1,0","1,1","1,2"],
								["2,0","2,1","2,2"]]
	},
	"name": "Rys9pad",
	"vendorId": "0xFEED",
  "productId": "0x0000"
}
